"telefono","rut"
226382113,"70011720-0"
226343604,"70629100-8"
223652903,"78570630-7"
226932592,"61934600-9"
226331615,"61103000-2"
226248600,"61103005-3"
226936964,"61101037-0"
227151214,"61925700-6"