"telefono","rut"
225964316-225964641-225965620-225965627,"89414100-K"
223300248,"81095400-0"
225500580-255005011,"85238100-0"
225400024,"70458400-8"
226912070,"60510000-7"
223635786,"79676190-3"
226868736,"96678770-8"
223520166,"76032263-6"
226680807,"59099140-6"
223391070,"78744620-5"
223539126,"96512200-1"
227878857-227878871,"76101694-6"
226868736,"76170761-2"
223515493,"96502470-0"
226907834,"79904920-1"
226464646,"76245825-K"
226513566,"96773290-7"
223635786-223635794,"77970900-0"