"telefono","rut"
227080347,"60506000-5"
224991000-224991039-224991042,"93305000-9"
227953100,"96961750-1"
223989849-223989882,"96577470-K"
224335173,"78415820-9"
227846603-227846635,"96998510-1"
224656054,"78793360-2"
223971093-224871092,"78080440-8"
226118431,"96514070-0"
227905054,"76320186-4"
224814310-224814321,"77188140-8"
224789101,"90991000-5"
223292700,"76174325-2"
225604006,"78337780-2"
227989525-227989650,"79744960-1"
223673822,"83033300-2"
226871738,"93912000-9"
224104704,"76525140-0"
223702780,"78156300-5"
227905054,"96724310-8"
227571838,"88201900-4"
227373071,"78737870-6"
223665078,"96709730-6"
223661026,"78370330-0"
225571125,"77038620-9"
223940134,"92654000-9"
222641300,"59133830-7"
224281312-224281314,"78141230-9"
224998912-224998977,"96680160-3"
224110023,"78715990-7"
224115507-224115547,"76186070-4"
226567800-226567838,"96884770-8"
223212277-227834000,"78254990-1"
222988393,"79751930-8"
223659712,"78331390-1"
224833821,"96917120-1"
225705740,"96607990-8"
222386013-222387034,"76041105-1"
223684866,"77807840-6"
227515100,"59061500-5"
225607967,"96686630-6"
226913475,"81212700-4"
226325354,"96635340-6"
223643959,"85697000-0"
224983392,"96798550-3"
225502250,"92730000-1"
224134837,"86778900-6"
223450475,"76014318-9"
224407125,"96756540-7"
226512817,"76811980-5"