"telefono","rut"
23972831,"99061000-2"
23644836,"96978660-5"
24614218,"91083000-7"
27510055-27510083,"76239208-9"
23429000,"78607980-2"
27638320,"96961720-K"
25857177,"76017019-4"
23907000-23907002-23907071,"96870260-2"
23531824,"59057230-6"
25857068,"96791560-2"
23607027,"76768230-1"
25857068,"96538230-5"
27265550-27265670,"81675600-6"
22007302,"99580930-3"
25807000,"88127800-6"
23358452,"76017515-3"
22908760,"93775000-5"
22908760,"78318330-7"
23897360,"76136076-0"
24402400,"85040900-5"
23607027,"53310572-6"
22288823,"96885950-1"
35212005,"96963630-1"
22007302,"96609000-6"
25948000,"91871000-0"
23976205-23976290,"96529420-1"
24227149,"79931610-2"
22222222-26597171,"96720740-3"
22222222-23737701,"83150900-7"
27638320,"78704000-4"