"telefono","rut"
226805922-226805980,"89026600-2"
223559800,"77996400-0"
226248566,"83145600-0"
224416506-224416547,"96817680-3"
222991044-222991053,"79831090-9"
222841251,"77365420-4"
227156200,"76012093-6"
224372800,"79538350-6"
227471147,"96713640-9"
227130331,"96709420-K"
224818200,"77018550-5"
223962045,"96803690-4"
226854200,"99597320-0"
223817160,"87001500-3"
222064109,"78030120-1"
226763304-226763362,"79918390-0"
227507120,"96847140-6"
226870705,"96694600-8"
222334357,"96602670-7"
226700520,"76412645-9"
224491008,"79802860-K"
224765502,"85037900-9"
223960631,"93020000-K"
223525800,"79518100-8"
224881815-224881824,"99577050-4"
223727280,"99546310-5"
225992015,"83574800-6"
222441854-223463200,"78150200-6"
223923410-223923487,"81293200-4"
224337700-224337751,"86454800-8"
224835300,"96888220-1"
223926023-223926026,"88147600-2"
225969900,"78289730-6"
223555100,"84361600-3"
225827360,"77618380-6"
223974410-223974414,"93113000-5"
224335700,"76084980-4"
223391668-223391810,"84865000-5"
222064300,"77479090-K"
224903100-224903200,"76117554-8"
223355504,"96919420-1"
225109000,"96538130-9"
223873400-223873451,"96683350-5"
223707049,"94405000-0"
222219671-225531546,"93740000-4"
227263605,"96869030-2"
224903200,"79719730-0"
226402010,"85417200-K"