"telefono","rut"
223637149-223637232,"96705940-4"
224315030,"76231182-8"
225712923,"76329161-8"
227261153,"76046889-4"
223556892,"76213076-9"
224343333,"84280800-6"
227064740,"76126897-K"
224702463,"86172000-4"
222143788,"76049840-8"
227151353,"61004036-5"
224998900-224998977-224999485,"76074285-6"
227151053,"61933800-6"
226231577,"78007870-7"
222021096,"79550460-5"
222361834,"77248210-8"
222490990-224909930,"96542490-3"
227292000-227292024,"91443000-3"
227596556,"76328075-6"
227263160,"78627340-4"
224503600,"79699520-3"
223898120,"77115570-7"
232210170,"76378932-2"
224819500-224819502,"78431150-3"
224374785-224374795,"93372000-4"