"telefono","rut"
226405269,"94282000-3"
223391668-223391810,"84865000-5"
226909535,"96535150-7"
224871805,"93178000-K"
224881815-224881824,"99577050-4"
225953512,"96945400-9"
225950100-225950136,"79705390-2"
224372800,"79538350-6"
226700520,"76412645-9"
223727280,"99546310-5"
223695626,"76388557-7"
225969900,"78289730-6"
222703019-222703036,"96804630-6"
224818200,"77018550-5"
226529625,"78423410-K"
226805922-226805980,"89026600-2"
226567898,"96616770-K"
227471147,"96713640-9"
227502212,"76357700-7"
223559800,"77996400-0"
222441854-223463200,"78150200-6"
227130331,"96709420-K"
227197300,"69255400-0"
225805211,"78258990-3"
224602191,"83162400-0"
223962045,"96803690-4"
226248566,"83145600-0"
222064109,"78030120-1"
223920047,"89689900-7"
224416506-224416547,"96817680-3"
222991044-222991053,"79831090-9"
224765502,"85037900-9"
227156200,"76012093-6"
226989187,"93764000-5"
227507120,"96847140-6"
224831000-224831015,"77779870-7"
223816019,"89371200-3"
224491008,"79802860-K"
222222222,"59033470-7"
224370900,"96606780-2"
224831000-224831015,"77390390-5"
223960631,"93020000-K"
223412993,"76890810-9"
222064300,"77479090-K"
225992015,"83574800-6"
223525800,"79518100-8"
222841251,"77365420-4"
223974410-223974414,"93113000-5"
227685260,"93720000-5"
223817160,"87001500-3"
224840212,"96920980-2"
226763304-226763362,"79918390-0"
223346500,"99589870-5"
227723715-227743602,"76086361-0"
225476011,"78901250-4"
227572366,"96806110-0"
225827360,"77618380-6"
223331545,"99517500-2"
226902900,"96518090-7"
224838700,"93926000-5"
226909582,"82691900-0"
226870705,"96694600-8"
224903200,"76109620-6"
224987504,"76936890-6"
227386770-227849000,"96754460-4"
227300154-227302148,"77305910-1"
222601616,"76378097-K"
224337700-224337751,"86454800-8"
223429300-223429347,"76047265-4"
223923410-223923487,"81293200-4"
222334357,"96602670-7"
224835300,"96888220-1"
224335700,"76084980-4"
223555100,"84361600-3"
224903100-224903200,"76117554-8"
223355504,"96919420-1"
225109000,"96538130-9"
223873400-223873451,"96683350-5"
223707049,"94405000-0"
222219671-225531546,"93740000-4"
227263605,"96869030-2"
224903200,"79719730-0"
226402010,"85417200-K"