"telefono","rut"
223502100,"81185000-4"
227142828-227142838,"96726480-6"
224306000-224306117,"69261400-3"
225666205,"70937200-9"
226760481,"94879000-9"
222073110,"76362243-6"
224785100,"88683400-4"
224335142-224335143,"79849190-3"
227542100,"91619000-K"
224644730-224644737,"96844950-8"
222419222,"89113900-4"
225629500,"85275500-8"
227156909,"78744360-5"
224226132,"76244049-0"
227201011,"76375557-6"
223836633-223836654,"99543990-5"
222998000,"79527230-5"
224294657-224294668,"99518420-6"
223831284,"81756300-7"
224894400-226896401,"96972530-4"
223398100-223398159,"81623500-6"
225921234,"96828810-5"
226323373,"96964340-5"
232130820,"76389028-7"
227821800-227821807-227821821,"79503640-7"
223912220-223912223,"96573780-4"
225880220,"76262610-1"
222036001-227385605,"76861280-3"
227390633,"96768050-8"
225365346,"88579800-4"
226553043,"84708300-K"
222305448-222995965,"96573100-8"
223809518-223809544,"93538000-6"
225819177,"80466200-6"
226635700-226635740-226635774,"77276280-1"
225892707-225892925,"95748000-4"
226322313,"83030600-5"
222342907,"96522120-4"
223074129-223074167,"76408816-6"
225307700-226542800,"95891000-2"
222841251,"96599270-7"
227065725,"76321931-3"
223559822,"76774910-4"
224226201,"88399000-5"
224282000,"96942870-9"
223450000,"80313300-K"
225854017-225854046,"79682100-0"
222045060-222747453,"79550730-2"
225946604,"76443280-0"
227301128,"87690900-6"
222795300-227295371,"76898420-4"
223608669-223608770,"83547100-4"
227074209,"78335990-1"
227724040,"96814780-3"
223856000,"96511330-4"
224880047,"96851800-3"
224407090,"91881000-5"
226230117,"96799310-7"
226760200,"81144200-3"
223406261,"76284920-8"
222191504,"76375780-3"
224407096,"96504850-2"
224706837-224717141,"91253000-0"
224850100,"80893200-8"