"telefono","rut"
227080347,"60506000-5"
225949444,"76033004-3"
227905054,"76320186-4"
224991000-224991039-224991042,"93305000-9"
227953100,"96961750-1"
223212277-227834000,"78254990-1"
227373071,"78737870-6"
223971093-223971095-224871092,"78080440-8"
225604006,"78337780-2"
224656054,"78793360-2"
226118431,"96514070-0"
227385230,"78634910-9"
225607967,"96686630-6"
223673822,"83033300-2"
224281312-224281314,"78141230-9"
226871738,"93912000-9"
227571838,"88201900-4"
224104704,"76525140-0"
223702780,"78156300-5"
224814310-224814321,"77188140-8"
225502250,"92730000-1"
223665078,"96709730-6"
226512817,"76811980-5"
227905054,"96724310-8"
222641300,"59133830-7"
224134837,"86778900-6"
222359482,"87550600-5"
227510204,"96642160-6"
223892166-223892299,"92621000-9"
224983392,"96798550-3"
223661026,"78370330-0"
223940134,"92654000-9"
224833821,"96917120-1"
222113589-226879372,"77260870-5"
224335173,"78415820-9"
223659712,"78331390-1"
223398013,"87652400-7"
223684866,"77807840-6"
224110023,"78715990-7"
224115507-224115547,"76186070-4"
226913475,"81212700-4"
223310280,"78110220-2"
222988393,"79751930-8"
222386013-222387034,"76041105-1"
225705740,"96607990-8"
225200200,"96537740-9"
223989849-223989882,"96577470-K"
222703200,"77077250-8"
225571125,"77038620-9"
226567800-226567838,"96884770-8"
227500600,"80565900-9"
226325354,"96635340-6"
223292700,"76174325-2"
227846603-227846635,"96998510-1"
224998977,"96680160-3"
224713600-224713630,"89274000-3"
227989525-227989650,"79744960-1"
223643959,"85697000-0"
223450475,"76014318-9"