"telefono","rut"
224368253,"76110809-3"
226377963,"61608001-6"
226366966-226366967,"96986050-3"
222805598,"76680700-3"
223887590-223887594-223887755,"69254100-6"
222286153,"78974830-6"
226885917,"99024000-0"