"telefono","rut"
225949444,"76033004-3"
222641300,"59133830-7"
224335173,"78415820-9"
224656054,"78793360-2"
226871738,"93912000-9"
227571838,"88201900-4"
227373071,"78737870-6"
225604006,"78337780-2"
223673822,"83033300-2"
223702780,"78156300-5"
227905054,"96724310-8"
223665078,"96709730-6"
223661026,"78370330-0"
223212277-227834000,"78254990-1"
225571125,"77038620-9"
225607967,"96686630-6"
223940134,"92654000-9"
224789101,"90991000-5"
224110023,"78715990-7"
224115507-224115547,"76186070-4"
224281312-224281314,"78141230-9"
226567800-226567838,"96884770-8"
222988393,"79751930-8"
223659712,"78331390-1"
224833821,"96917120-1"
225705740,"96607990-8"
222386013-222387034,"76041105-1"
223684866,"77807840-6"
226913475,"81212700-4"
226325354,"96635340-6"
224104704,"76525140-0"
223643959,"85697000-0"
224983392,"96798550-3"
223310280,"78110220-2"
223989849-223989882,"96577470-K"
225200200,"96537740-9"
223398013,"87652400-7"
224134837,"86778900-6"
227846603-227846635,"96998510-1"
227989525,"79744960-1"
223450475,"76014318-9"
224407125,"96756540-7"
226512817,"76811980-5"