"telefono","rut"
24618711,"96628780-2"
23402762-25697451,"77116500-1"
23763356-23763376-23763388,"81458500-K"
23390108-23390151-33022867,"96683120-0"
26807429,"99513400-4"
23448328-26807454-26807642-26912056,"96763010-1"
23398032,"87107000-8"
22807348,"96719210-4"
25710567-25710568,"70912300-9"
24714193-24714735,"92805000-9"
25204422-25204568-25603463,"96812960-0"
23955448,"96953410-K"
23519433,"96842570-6"
25842036,"96515580-5"
25842036,"76181170-3"
23947900-23947958,"79768480-5"
23688333-23688342-23688345,"79963260-8"
25819358-25819360,"96791730-3"
25842036-25842070-25842150,"96604380-6"
24967200-24967255,"76335289-7"
25404216-25404218,"96530900-4"
25842036,"96847360-3"
27702889,"96837950-K"
23835409-23835972,"78012790-2"
24423252-24423842-24450194,"91762000-8"
23380890,"92434000-2"
26983186,"71286700-0"
24998466,"76523610-K"
24618680-24618736,"96538310-7"
22215356,"78222130-2"
24294901,"96511530-7"
25842036,"96639280-0"
24252047-24252322,"79768170-9"
25842036,"99573400-1"
24967200-24967255,"76320057-4"
22373702-22373707,"71645600-5"
23519200-23519332,"86500000-6"
27573829,"96917990-3"
26537450,"76129879-8"
24967200-24967255,"76416931-K"
22222222,"94048000-0"
23981154-23981496-23981499,"96823770-5"
23519332-23519381-27918203,"77599780-K"
23519332,"76085628-2"
24254984,"93007000-9"
23519332-23519381,"76236010-1"
24967200-24967255-24988118,"96632170-9"
25842036,"77371990-K"
26743528,"92216000-7"
22506518,"76148338-2"
25842036,"77512350-8"
25819358,"76100121-3"
27986663-27987811,"78896610-5"
24137050-24137804-24137987,"76752060-3"
25842036,"99551180-0"
24714154,"96893530-5"
23851364-23851947,"76178390-4"