"telefono","rut"
223607027-223607093,"96928180-5"
223607093,"76768230-1"
225498415,"82181700-5"
223607093,"51084200-6"
224412510-224412757,"96731890-6"
225498415,"78359160-K"
223990038-223990042,"79684790-5"
224632635-226012055,"96599510-2"
227280328,"76524356-4"
225857270,"79990670-8"
227306100,"78350440-5"
223776777,"92423000-2"
225498415,"82074900-6"
225498415,"88461900-9"
223695428,"96566070-4"
225624130,"76328242-2"
224412510-224412757,"96529310-8"
224142600,"96538140-6"
224985600,"77094500-3"
226185991-226851600,"92091000-9"
227292400,"96581970-3"
225807000,"88127800-6"
224412510-224412757,"96757710-3"
225948781-225948800-225948987,"91871000-0"
223471700,"96862280-3"
225498415,"96984380-3"
222007473,"96609000-6"
225498415,"79747630-7"