"telefono","rut"
225107602,"96710390-K"
223652903,"78570630-7"
226343604,"70629100-8"
226932592,"61934600-9"
226382113,"70011720-0"
226331615,"61103000-2"
226248600,"61103005-3"
227151214,"61925700-6"