"telefono","rut"
227905054,"76320186-4"
224281312-224281314,"78141230-9"
223989849-223989882,"96577470-K"
223212277-227834000,"78254990-1"
225604006,"78337780-2"
227510204,"96642160-6"
224983392,"96798550-3"
224713600-224713630,"89274000-3"
227385230,"78634910-9"
225607967,"96686630-6"
224407125,"96756540-7"
224998912-224998977,"96680160-3"
222113589-226879372,"77260870-5"
224991000-224991039-224991042,"93305000-9"
226118431,"96514070-0"
226512817,"76811980-5"
223659712,"78331390-1"
225949444,"76033004-3"
227500600,"80565900-9"
226913475,"81212700-4"
225200200,"96537740-9"
227571838,"88201900-4"
227905054,"96724310-8"
223643959,"85697000-0"
226325354,"96635340-6"
224134837,"86778900-6"
227846603-227846635,"96998510-1"
227989525-227989650,"79744960-1"
223450475,"76014318-9"