"telefono","rut"
224336558,"96546050-0"
225712923,"76329161-8"
224315030,"76231182-8"
227064740,"76126897-K"
224702463,"86172000-4"
222143788,"76049840-8"
224503600,"79699520-3"
224782059,"92264000-9"
227151353,"61004036-5"
227261153,"76046889-4"
227151053,"61933800-6"
223556892,"76213076-9"
224998900-224998977-224999485,"76074285-6"
226231577,"78007870-7"
232238769,"76004625-6"
222021096,"79550460-5"
224343333,"84280800-6"
222361834,"77248210-8"
222490990-224909930,"96542490-3"
223774943,"96927190-7"
232210170,"76378932-2"
227596556,"76328075-6"
223898120,"77115570-7"
223637149-223637232,"96705940-4"
224819500-224819502,"78431150-3"