"telefono","rut"
224408527-224408566,"81271100-8"
223818661-223818662,"96841800-9"
227205800-227205809,"76288567-0"
223389067-223389077,"96682430-1"
223818661-223818728,"78012930-1"
225290382-225699134,"52003686-5"
227309293,"78137000-2"
223705101,"93240000-6"
232207422,"96929910-0"
224114400-224114407,"96973910-0"
222351851,"59107380-K"
0990789540,"78366970-6"
223818661,"96994620-3"
227978255,"69091200-7"
227824400,"99548440-4"
223701090,"76246526-4"
223677618-223677657-223677600,"96640140-0"
223627000,"95050000-K"
223223000,"76031602-4"
224315798,"96793640-5"
227515100,"76036596-3"
223818661,"96606450-1"
222701375,"76298660-4"
227335174-227335570,"76098467-1"
222312697,"99530460-0"
223557805-223557837,"96515810-3"
227142150,"96755590-8"
224696209,"76541630-2"
225924108,"87006000-9"
223818661-225865019,"76458660-3"
232033900,"59144770-K"
226364120-226364121,"96573590-9"
222329145,"96968120-K"
226701922,"76415589-0"
226035050,"76044638-6"
224634800,"78239560-2"
225575254,"83297700-4"
226990811,"76032205-9"
224616700,"96518750-2"
226832003,"99574920-3"
226405711,"83641100-5"
224767000,"96565870-K"
223858169,"96670840-9"
223915976,"96844000-4"
223300802-223300951,"80989400-2"