"telefono","rut"
23666717-24059131,"69071300-4"
25401651-72167761,"69255300-4"
23311179-23311230-23311404,"71543200-5"
24355234,"71605400-4"
26320750,"69902000-1"
27530400-27530571-27530595-53729446,"61501000-6"
23831955,"61113000-7"
56875837,"69072700-5"
25927497,"69070600-8"
22224317-26339114,"61979870-8"
25755217-25755282,"61605000-1"
26669999,"96845430-7"
22730766,"60505720-9"
27433400,"76093358-9"
26613143-26613504,"96917500-2"
26785437,"76680700-3"
23101591-25971184,"96770100-9"
25826033-26826034,"73046000-7"
24392880,"61104022-9"
23547942,"96691330-4"
26914436,"60513000-3"
22531659-22531674-22531691,"71540800-7"
67286602,"76699660-4"
22994504-22994507-22994537-22994539,"65200090-8"
24733082,"61701000-3"
26164102,"72443600-5"
25826033,"70995200-5"
24257990-24257992,"60718000-8"
77976749,"76071384-8"
27060760,"76145274-6"
27370364,"61608001-6"
26964200,"61109000-5"
26613143,"87869500-3"
25207742-25207796-25207802,"61101034-6"
26169200-27267212,"65613130-6"
22923010-26930161-26930174,"73923800-5"
26972293,"72731300-1"
25711916,"77063770-8"
23625445,"92051000-0"
26934222-26934362-26935481,"61101036-2"
27181446,"76421320-3"
25498756,"96806630-7"
26980482,"70008290-3"
24124450,"70976000-9"
25706936,"82606800-0"
27879107-27879180,"96783880-2"
23546650,"81698906-K"
27873652-27873653,"65663430-8"
22468616,"96548780-8"
23363248,"76188150-7"
23646187-23646189-24702531-24702538-24702549,"82983100-7"
22805500,"76718540-5"
23370334,"72529900-1"
23662217,"78040520-1"
23038332,"61307000-1"
24777906,"81242500-5"
25498727,"77263730-6"
22221154,"61979970-4"
22222222,"73912700-9"
23525718,"61002004-6"
26366000-26366924-26366966-26366967-27291302,"96780550-5"
27573294,"65004754-0"
25498727,"78591210-1"